module bootc

go 1.19

require (
	github.com/fsnotify/fsnotify v1.7.0
	github.com/sirupsen/logrus v1.9.3
	github.com/spf13/cobra v1.8.0
)

require (
	github.com/inconshreveable/mousetrap v1.1.0 // indirect
	github.com/spf13/pflag v1.0.5 // indirect
	golang.org/x/sys v0.4.0 // indirect
)
